46 2
1 0 
1 37 b b a a a b a a a a b a a a a a a a b a b a b a a a a b a a a a a b a b b
1 25 b b a a b a a b a a a a a a b b b b a a b b a a b
1 28 b b a b a a a a b b b a a a a b a b b b a a a a a a a b
1 8 a b a a a a b b
1 38 a b a a b a b a b a a a a a a a b a b a a a a b a a a a a b a a a a a b b b
1 15 b b a a b a a a a a b a a a a
1 44 a b a a a a a a b a a a a a b a b b a a a b a b a a b a a a a a a b a b a a b a a a a b
1 12 b a a b b a a b a a b b
1 21 b b a b a b a a a b a a a a a a b b b a a
1 22 a b a a a b a a a a a a b b b a b a a a b b
1 2 b a
1 31 a b a a b a a a b a a a a a b a a a a a a a a a a a b b a b b
1 43 a b a a b a b a a b a a a a a b b b a a a a a b a a a a a a b a a a b a a a a a a a a
1 16 b b a a a b a a a a a a a b a b
1 15 b b a a a a b a a a a a b a b
1 20 a b a a a a a a b b b b a a a a a a b a
1 23 a b a a a b a a a a b a a a a b a a a a a b b
1 41 b a a a a a a b a b a a a b a a b a a a b a a a a a a a b b a b a a a a a b b b a
1 17 b b a a a b a a b a a a b b a b b
1 17 b b a a a a a b a b a a a b b b b
0 5 a b a a a
0 3 b a a
0 1 a
0 3 a b a
0 4 b b a b
0 5 b b a a a
0 6 a b a b a a
0 6 b b a b a a
0 7 a b a b a a a
0 4 b b a a
0 7 a b a a b a a
0 7 b b a b a a a
0 2 a b
0 2 a a
0 8 a b a a b a a a
0 4 a b a b
0 5 a b a a b
0 3 b b a
0 4 a b a a
0 2 b b
0 5 b b a b a
0 3 a a a
0 1 b
0 5 a b a b a
0 6 a b a a b a
