109 4
1 0 
1 2 d d
1 5 d d d d c
1 16 b c c c c c c d c c c b d d c c
1 19 b c c c c c b d d a c a a c b c c c c
1 6 d c d c c c
1 5 d d a c c
1 13 d c c c c c c c c c c c c
1 1 b
1 17 d c b d d c c c c c b d d c c c c
1 4 d d d c
1 14 d d d d c c c d c b c b d d
1 10 b c c c c c c c c a
1 5 d a c c c
1 3 d c c
1 5 d a a c c
1 4 d d d d
1 2 d c
1 1 c
1 16 d c c c c c c c c b d d c c c c
1 4 d d c c
1 8 d d d d c d c c
1 2 b c
1 3 d d d
1 8 d d d c c b d d
1 4 a c c c
1 14 d d d d c c c b d d c b d d
1 12 d d d c c a c b d d c c
1 7 b c b c d c c
1 9 d d c c c c a a a
1 6 b a c c a c
1 3 c c c
1 1 d
1 15 d d d d c c c b d d c c a a c
1 4 c b c c
1 16 d d d d c c c c b d d c b a c a
1 10 d d c c c c a c a c
1 13 b c c c c c c c c c c c c
1 11 d c c c c c c c b d d
1 5 b c c c b
1 5 c c c c c
1 3 b c d
1 14 d d c b d d c b d d a a a a
1 18 c b d d c c c c c c c c b d d a a c
1 10 d c c c c c c b d d
1 6 b c c c c c
1 5 b c c c c
0 12 d c c a c c b d d c b d
0 10 d c b d d c b c b d
0 13 d d c c c c c c c d c b d
0 6 d c b c b d
0 20 d c c c c c b d d c c c d c b d d c b d
0 11 d d d d c b d d c b d
0 10 b c c c c c c c b d
0 8 d c a c a c b d
0 9 d c c b d d c b d
0 21 d d d d c d c c c c c c c c c b d d c b d
0 15 d c c b d d c c c b d d c b d
0 8 d c b d d c b d
0 8 c c b d d c b d
0 16 d c c c b d d c c c c c c c b d
0 11 d d d d c c c c c b d
0 14 d c c c c c b d d c d c b d
0 7 d c c c c b d
0 9 c c c b d d c b d
0 10 b c c c b d d c b d
0 20 d c c c c c b d d c c c c c b d d c b d
0 14 b c c c b d d c b d d c b d
0 12 d c c c c c c c c c b d
0 6 b c a c b d
0 16 a c c c c c c c c c d c c c b d
0 13 c c c b d d c b d d c b d
0 8 d c c a c c b d
0 5 c c c b d
0 17 d d d d c c c c c c c c c c c b d
0 7 b c c c c b d
0 6 d c c c b d
0 7 d d d d c b d
0 20 d d d c c c c c c c c c c c c c c c b d
0 16 d c c c c c b d d c c c d c b d
0 17 d d d d c d c c c c c c c c c b d
0 6 d d d c b d
0 10 d d a c c c c c b d
0 6 b c c c b d
0 4 b c b d
0 12 d d a c c c c c c c b d
0 16 b c c c b c c c c c c c c c b d
0 8 d d d d c c b d
0 13 d d d d c b d d c b c b d
0 10 d d d d c c c c b d
0 9 d d d a c c c b d
0 8 b c c c c c b d
0 6 c c c c b d
0 11 d c c b d d c c c b d
0 4 d c b d
0 5 d c c b d
0 17 d c c c c b d d c c c c c d c b d
0 8 d c c c c c b d
0 7 b a c c c b d
0 11 d c c c c c c b c b d
0 14 b c b d d c c c c c c c b d
0 7 c a c c c b d
0 22 d c c c b d d c c c c c c c b d d c c c b d
0 16 d c c c c c b d d c c c c c b d
0 14 d c c c c c b d d c c c b d
0 17 d d d d c b d d c c c c c c c b d
0 4 c c b d
0 10 d c c c b c c c b d
0 11 b c c c c c c c c b d
