843 4
1 0 
1 8 a d d d c c d b
1 9 a d d d d c c d b
1 15 b a b a b a d a d d d c c d b
1 17 d a a d b c a a a d b c b c c d b
1 14 b a b a b a b a d a c c d b
1 12 b a b a b a d c c c d b
1 5 a c c d b
1 34 d d b c d b c a d b c a d b c a a a a d b c a d b c d b c b c c d b
1 5 b c c d b
1 12 b a d a d d d d c c d b
1 32 d a a a d b c a a a a d b c a a a a d b c a d b c a d d c c d b
1 14 b a b a b a b a d c c c d b
1 50 d a a d b c d b c a a a d b c a a a a d b c a a a a d b c a a d b c a a a a d b c d b c a d c c d b
1 6 d b c c d b
1 6 d a c c d b
1 14 d a a a d b c a d d c c d b
1 18 a a d b c a d b c d b c d a c c d b
1 9 b a d a d c c d b
1 31 d d d d b c a a d b c a a a a d b c a a d b c a d d d c c d b
1 5 c c c d b
1 21 a a a d b c a a a a d b c d b c c c c d b
1 12 b a b a b a d b c c d b
1 10 b a b a d b c c d b
1 13 d a d b c d b c a c c d b
1 17 a a a d b c a a a d b c a c c d b
1 8 b a d b c c d b
1 22 a a a a d b c a a d b c d b c d d b c c d b
1 23 d b c a a a a d b c a d b c a d b c c c c d b
1 39 a d b c a d b c a a a d b c a d b c d d a a a a d b c a a a d b c a d c c d b
1 13 d d d d a d d d d c c d b
1 6 d d d d d d
1 6 a d c c d b
1 9 d a d d d c c d b
1 16 d d b c a a a a d b c b c c d b
1 15 b a b a b a b a d a d c c d b
1 7 d a d c c d b
1 18 d b c a a a d b c a d b c b c c d b
1 13 b a b a b a d a d c c d b
1 28 d a a a d b c d b c d b c a a a a d b c a d d d c c d b
1 31 a a a d b c a a a d b c a a a a d b c a a d b c a d d c c d b
1 10 b a b a d c c c d b
1 8 d d d d d d d d
1 24 a a a d b c a a a d b c d b c d b c d a c c d b
1 12 b a b a d a d d c c d b
1 26 a a a d b c a a d b c a d b c a a a d b c b c c d b
1 26 a a d b c a a a d b c a a d b c a d b c d b c c d b
1 20 a a d b c a a d b c d b c d d c c c d b
1 11 b a b a d a d c c d b
1 6 d c c c d b
1 14 b a b a b a b a d b c c d b
1 22 d a a d b c a a a a d b c a d d d d c c d b
1 10 d a d d d d c c d b
1 14 b a b a b a d a d d c c d b
1 8 d a d d c c d b
1 44 a a a a d b c a a a d b c d a a a d b c a a a a d b c a a d b c a a d b c a d d c c d b
1 35 a d b c a a a d b c d b c a a a a d b c d a a a d b c a d d d c c d b
1 8 b a d c c c d b
1 7 d d c c c d b
1 23 d d a a a a d b c d b c a a d b c d b c c d b
1 4 d d d d
1 22 d a a a a d b c a a a d b c a d d d c c d b
1 2 d d
1 25 a a d b c a a a d b c a a a a d b c d d a c c d b
1 8 d d d c c c d b
1 30 a a a d b c d b c d d b c a a a a d b c a a d b c b c c d b
0 20 d a d b c a d b c a d b c a a a a d b c
0 58 a a d b c a d b c d b c d b c d b c a d b c a a d b c a a d b c a d b c a a a d b c a a a a d b c a a d b c b c c d
0 7 d d d c c c d
0 5 d a a d b
0 20 a a a a d b c a a a a d b c d b c d b c
0 21 d b c a a d b c a a a d b c a d b c d a a
0 14 d a a a d b c a a d b c a a
0 13 d b c a d b c a a a d b c
0 11 a a d b c a d b c d b
0 4 b a d a
0 31 a a a a d b c a a a a d b c d b c d b c a a d b c a d b c a a
0 35 a a a a d b c a a d b c a a d b c a d b c a d b c d a a a a d b c a d
0 16 b a b a b a b a d a d d d d c c
0 12 d a a a d b c a a d b c
0 14 b a b a b a d a d d d c c d
0 2 a d
0 16 a a d b c a a a a d b c a d b c
0 3 d b c
0 24 a a a d b c a d b c a a a d b c a a a d b c a d
0 10 b a b a b a b a d a
0 4 d d d a
0 57 a a d b c a d b c d b c d b c d b c a d b c a a d b c a a d b c a d b c a a a d b c a a a a d b c a a d b c b c c
0 6 d b c d d a
0 13 d a a a a d b c a a d b c
0 5 b a d c c
0 11 d d d a a a a d b c a
0 7 d b c d d a d
0 21 d a a d b c a a a a d b c a a d b c d d b
0 9 b a b a b a b a d
0 7 d a d b c a d
0 7 b a b a b a d
0 34 a a a a d b c d b c a d b c a a d b c a a d b c a a a a d b c d b c
0 32 a a a a d b c a a a a d b c d b c d b c a a d b c a d b c a a d
0 16 d d a d b c a a a d b c a d b c
0 4 d c c c
0 3 a a d
0 15 d a d b c d b c a d b c d d b
0 29 d b c a a d b c a a a d b c a d b c d a a d b c d a d d c
0 29 d d a d b c a a a d b c a d b c a d b c a a a a d b c a a
0 10 b a b a b a d c c c
0 8 a a d b c a d b
0 15 d a a d b c a a d b c a a a d
0 31 a a a a d b c d b c a d b c a a d b c a a d b c a a a a d b c
0 9 a a d b c a d c c
0 22 a a a a d b c d b c a d b c a a d b c a a d
0 26 d b c a d b c a a a d b c d b c a a a a d b c a d b
0 17 a a d b c a d b c d b c a d b c d
0 16 a a a a d b c a a d b c a a d b
0 9 b a b a d a d d c
0 60 a a a a d b c a a a a d b c d b c d b c a a d b c a d b c a a d b c a a a d b c d b c a a a a d b c a d b c a a d b c a
0 13 b a b a b a b a d b c c d
0 13 d d d a a a a d b c a d d
0 18 d b c a d b c a a a d b c a a a a d
0 25 d b c a a d b c a a a d b c a d b c d a a d b c d
0 19 d a d b c a d b c a d b c a a a a d b
0 14 b a b a b a b a d a d d d c
0 26 d a d b c d b c a d b c d d b c a a a d b c d b c a
0 41 a a a a d b c d b c a d b c a a d b c a a d b c a a a a d b c d b c a a a a d b c
0 10 d a a a a d b c a a
0 32 a a a a d b c d b c a d b c a a d b c a a d b c a a a a d b c d
0 18 a a d b c a d b c d b c a d b c d d
0 37 a a a a d b c a a a a d b c d b c d b c a a d b c a d b c a a d b c a a a
0 28 d b c a a d b c a a a d b c a d b c d a a d b c d a d d
0 7 a a a a d b c
0 8 d b c a a d b c
0 29 a a d b c a a a a d b c a d b c d b c a a a a d b c a a a
0 10 b a b a d a d d d d
0 42 a a a a d b c a a a a d b c d b c d b c a a d b c a d b c a a d b c a a a d b c d b
0 30 d a d b c d b c a d b c d d b c a a a d b c d b c a d c c d
0 4 d b c c
0 9 a a a a d b c a a
0 9 b a b a d a c c d
0 21 a a a a d b c a a a a d b c a a a a d b c
0 28 a a a d b c a d b c a a a d b c a a a d b c a d b c c c
0 9 d d a a a d b c d
0 6 b a d b c c
0 5 d a a a a
0 28 a a a a d b c a a a a d b c d b c d b c a a d b c a d b
0 27 a a a a d b c a a a a d b c a a a a d b c a a d b c b
0 25 d a a a d b c a a d b c a a a d b c a d d d c c d
0 8 d b c d d a d d
0 17 d a a a d b c a a d b c a a a d b
0 45 a a a a d b c a a a a d b c d b c d b c a a d b c a d b c a a d b c a a a d b c d b c a a
0 17 d b c a a d b c a a a d b c a d b
0 10 a a d b c d b c c d
0 11 a a a d b c a d b c a
0 9 a a a a d b c a d
0 27 a a a a d b c a a a a d b c a d b c a a d b c d a d d
0 22 a a d b c a d b c d b c a d b c d d a c c d
0 7 d d d a d d d
0 13 b a b a b a b a d a d d d
0 5 d c c c d
0 8 b a b a d a d d
0 34 a a d b c a a a a d b c a d b c d b c a a a a d b c a a a d b c b c
0 14 b a b a b a b a d a d d d d
0 9 b a b a b a d a d
0 10 b a b a d a d d d c
0 13 a a d b c a d b c d b c a
0 21 a a d b c a d b c d b c d b c d b c a d b
0 9 b a b a d c c c d
0 4 a d d c
0 33 d d a d b c a a a d b c a d b c a d b c a a a a d b c a a d b c c
0 11 b a b a d a d d d c c
0 3 d a a
0 15 a a a a d b c d b c a d b c a
0 17 a a d b c a a a a d b c a d b c d
0 10 a d b c d b c a a a
0 28 a a d b c a d b c d b c d b c d b c a d b c a a d b c a
0 16 d a a a a d b c a a d b c b c c
0 27 a a a a d b c a a d b c a a d b c a d b c a d b c d a
0 50 a a d b c a d b c d b c d b c d b c a d b c a a d b c a a d b c a d b c a a a d b c a a a a d b c a
0 23 a a a a d b c a d b c a d b c a a d b c a d d
0 15 b a b a b a b a d a d d c c d
0 17 d d a d b c a a a d b c a d b c a
0 10 b a b a b a b a d c
0 33 a a d b c a a a a d b c a d b c d b c a a a a d b c a a a d b c b
0 26 a a a a d b c a a a a d b c a d b c a a d b c d a d
0 35 a a d b c a a a a d b c a d b c d b c a a a a d b c a a a d b c b c c
0 3 d a c
0 3 d d a
0 35 a a a a d b c d b c a d b c a a d b c a a d b c a a a a d b c d b c a
0 26 a a a a d b c d b c a d b c a a d b c a a d b c a a
0 24 a a a a d b c a d b c a d b c a a d b c a d d d
0 38 a a d b c a d b c d b c d b c d b c a d b c a a d b c a a d b c a d b c a a
0 26 a a a a d b c a a a a d b c d b c d b c a a d b c a
0 17 a d b c d b c a a a a d b c c c c
0 17 d a d b c d b c a d b c d d b c a
0 10 a a d b c a a a a d
0 15 a a a a d b c d b c d a d d d
0 10 d d d a d d d c c d
0 36 a a a a d b c a a a a d b c d b c d b c a a d b c a d b c a a d b c a a
0 6 d d a d c c
0 12 a a a a d b c a a a a d
0 4 a a d b
0 20 a a a a d b c a d b c a d b c a a d b c
0 13 d d a d b c a a a d b c a
0 34 d b c a d b c a a a d b c d b c a a a a d b c a d b c a d b c d c c
0 24 d d a d b c a a a d b c a d b c a d b c a a a a
0 6 a a a a d b
0 4 a d d d
0 7 d b c a d b c
0 6 b a d a d d
0 13 b a b a b a d a d d d c c
0 12 d a a d b c a a a a d b
0 6 a a a d b c
0 44 a a a a d b c a a a a d b c d b c d b c a a d b c a d b c a a d b c a a a d b c d b c a
0 5 a a a a d
0 8 a a a a d b c d
0 9 b a b a d b c c d
0 2 d a
0 21 a a a a d b c a a a a d b c d b c d b c a
0 11 d a a d b c a a d b c
0 55 a a a a d b c a a a a d b c d b c d b c a a d b c a d b c a a d b c a a a d b c d b c a a a a d b c a d b c a
0 18 a a a a d b c a d b c a d b c a a d
0 25 a a a a d b c a d b c a d b c a a d b c a d d d d
0 12 b a b a b a b a d a d d
0 18 d a a a d b c a a d b c a a a d b c
0 13 d a a d b c a a a a d b c
0 11 a a a a d b c d b c d
0 16 d b c a d b c a a a d b c a a a
0 21 a a d b c a d b c d b c a d b c d d a c c
0 9 d d d a a a a d b
0 5 b a b a d
0 54 a a d b c a d b c d b c d b c d b c a d b c a a d b c a a d b c a d b c a a a d b c a a a a d b c a a d b c
0 15 a a d b c a a a a d b c a d b
0 25 a a a d b c a d b c a a a d b c a a a d b c a d b
0 5 d d b c c
0 26 a a d b c a d b c d b c d b c d b c a d b c a a d b
0 5 d b c c d
0 10 d b c a a d b c a a
0 17 a a a a d b c d b c d a d d d c c
0 22 d a a d b c a a a a d b c a a d b c d d b c
0 8 b a b a d a c c
0 15 d b c a d b c a a a d b c d b
0 8 a d b c d b c a
0 10 b a b a d a d c c d
0 14 a a a a d b c a a a a d b c
0 27 d b c a d b c a a a d b c d b c a a a a d b c a d b c
0 8 d a a a a d b c
0 3 b a b
0 4 d a a a
0 14 d a a d b c a a a a d b c a
0 29 a a a a d b c a a a a d b c a a a a d b c a a d b c b c c
0 31 d b c a a d b c a a a d b c a d b c d a a d b c d a d d c c d
0 23 a a a a d b c a a a a d b c d b c d b c a a d
0 40 a a a a d b c a a a a d b c d b c d b c a a d b c a d b c a a d b c a a a d b c
0 4 a c c d
0 26 d d a d b c a a a d b c a d b c a d b c a a a a d b
0 8 d a d b c d b c
0 23 d b c a a d b c a a a d b c a d b c d a a d b
0 6 a d d d c c
0 18 d d d a a a a d b c a d d d d c c d
0 7 d d d a d c c
0 19 d b c a a d b c a a a d b c a d b c d
0 9 b a b a d a d c c
0 39 a a a a d b c a a d b c a a d b c a d b c a d b c d a a a a d b c a d b c b c
0 14 d b c a a d b c a a a d b c
0 21 d a d b c d b c a d b c d d b c a a a d b
0 46 a a a a d b c a a a a d b c d b c d b c a a d b c a d b c a a d b c a a a d b c d b c a a a
0 10 a a d b c a d c c d
0 11 a a a a d b c a d b c
0 24 a a a a d b c d b c a d b c a a d b c a a d b c
0 11 d d a d b c a a a d b
0 23 d a d b c d b c a d b c d d b c a a a d b c d
0 28 a a d b c a a a a d b c a d b c d b c a a a a d b c a a
0 11 d b c a a d b c a a a
0 26 d b c a a d b c a a a d b c a d b c d a a d b c d a
0 16 a d b c d b c a a a a d b c c c
0 36 a a a a d b c d b c a d b c a a d b c a a d b c a a a a d b c d b c a a
0 4 a d b c
0 4 d a d b
0 10 a a d b c a d b c d
0 11 b a b a b a b a d a c
0 7 b a b a b a b
0 8 a a a d b c a d
0 18 d a d b c d b c a d b c d d b c a a
0 9 d a d b c a d b c
0 7 a d d d c c d
0 38 a a a a d b c d b c a d b c a a d b c a a d b c a a a a d b c d b c a a a a
0 19 a a a a d b c d b c a d b c a a d b c
0 36 a a d b c a a a a d b c a d b c d b c a a a a d b c a a a d b c b c c d
0 5 a d d c c
0 35 d d a d b c a a a d b c a d b c a d b c a a a a d b c a a d b c c c c
0 14 a a a a d b c d b c a d b c
0 13 d a d b c a d b c a d b c
0 27 a a a a d b c a a d b c a a d b c a d b c a d d c c d
0 12 d b c a a d b c a a a d
0 47 a a d b c a d b c d b c d b c d b c a d b c a a d b c a a d b c a d b c a a a d b c a a a a d
0 7 d a a a d b c
0 8 a a a a d b c a
0 17 b a b a b a b a d a d d d d c c d
0 6 a a d b c a
0 22 a a a a d b c a a d b c a a d b c a d b c a
0 6 a a d b c d
0 27 a a a a d b c d b c a d b c a a d b c a a d b c a a a
0 15 d a a d b c a a a a d b c a a
0 34 d d a d b c a a a d b c a d b c a d b c a a a a d b c a a d b c c c
0 13 b a b a b a b a d a d d c
0 21 a a d b c a a a a d b c a d b c d b c a a
0 10 d a d b c a d b c a
0 29 d a d b c d b c a d b c d d b c a a a d b c d b c a d c c
0 25 a a a a d b c a a a a d b c a d b c a a d b c d a
0 23 d a a d b c a a a a d b c a a d b c d d b c c
0 21 a a a a d b c d b c a d b c a a d b c a a
0 14 d d a a a d b c d a d c c d
0 17 a a a d b c a d b c a a a d b c a
0 19 a a d b c a d b c d b c d b c d b c a
0 24 d a a a d b c a a d b c a a a d b c a d d d c c
0 52 a a d b c a d b c d b c d b c d b c a d b c a a d b c a a d b c a d b c a a a d b c a a a a d b c a a d
0 8 b a d a d c c d
0 25 d a d b c d b c a d b c d d b c a a a d b c d b c
0 15 a a a a d b c a a d b c a a d
0 7 a a d b c d b
0 7 d d d d d d d
0 20 d b c a a d b c a a a d b c a d b c d a
0 16 d a a d b c a a a a d b c a a d
0 42 a a a a d b c d b c a d b c a a d b c a a d b c a a a a d b c d b c a a a a d b c a
0 9 a a d b c a a a a
0 12 b a b a b a b a d a c c
0 12 d d a a a d b c d a d c
0 6 d d d a c c
0 29 a a a a d b c d b c a d b c a a d b c a a d b c a a a a d
0 5 b a b a b
0 5 d a d b c
0 10 b a b a d a d d c c
0 7 b a d c c c d
0 39 a a a a d b c d b c a d b c a a d b c a a d b c a a a a d b c d b c a a a a d
0 4 b a d b
0 1 a
0 7 a a d b c a d
0 50 a a a a d b c a a a a d b c d b c d b c a a d b c a d b c a a d b c a a a d b c d b c a a a a d b c
0 10 d d d a a a a d b c
0 19 d b c a d b c a a a d b c d b c a a a
0 24 a a a a d b c a a a a d b c a d b c a a d b c d
0 29 a a a d b c a d b c a a a d b c a a a d b c a d b c c c c
0 27 a a d b c a d b c d b c d b c d b c a d b c a a d b c
0 27 a a a d b c a d b c a a a d b c a a a d b c a d b c c
0 5 d a c c d
0 19 a a d b c a a a a d b c a d b c d b c
0 22 d b c a d b c a a a d b c d b c a a a a d b
0 16 d a d b c d b c a d b c d d b c
0 18 a a a d b c a d b c a a a d b c a a
0 20 d b c a d b c a a a d b c d b c a a a a
0 15 d a a a d b c a a d b c a a a
0 22 a a a a d b c a a a a d b c d b c d b c a a
0 59 a a a a d b c a a a a d b c d b c d b c a a d b c a d b c a a d b c a a a d b c d b c a a a a d b c a d b c a a d b c
0 37 a a a a d b c d b c a d b c a a d b c a a d b c a a a a d b c d b c a a a
0 17 a a d b c a d b c d b c d b c d b
0 7 b a d b c c d
0 43 a a d b c a d b c d b c d b c d b c a d b c a a d b c a a d b c a d b c a a a d b c a
0 7 d d a d c c d
0 5 d d d c c
0 5 d d d a a
0 6 d a d b c a
0 6 d b c a a d
0 18 a a a a d b c a a a a d b c a a a a
0 17 d a a a a d b c a a d b c b c c d
0 7 b a d a d d d
0 18 a a d b c a a a a d b c a d b c d b
0 7 b a b a d c c
0 22 d a d b c a d b c a d b c a a a a d b c a d
0 17 a a a a d b c a a a a d b c a d b
0 17 a a a a d b c a a a a d b c d b c
0 7 d b c a a d b
0 12 b a b a b a b a d b c c
0 12 b a b a b a d a d c c d
0 33 d b c a d b c a a a d b c d b c a a a a d b c a d b c a d b c d c
0 29 a a d b c a d b c d b c d b c d b c a d b c a a d b c a a
0 13 a a a a d b c a d b c a d
0 16 d a d b c a d b c a d b c a a a
0 14 b a b a b a b a d a d d c c
0 22 d b c a d b c a a a d b c a a a a d b c d b
0 16 a a a a d b c d b c a d b c a a
0 10 d b c a d b c a a a
0 5 a d b c d
0 29 a a a a d b c a a a a d b c a d b c a a d b c d a d d d c
0 7 d d a a a d b
0 9 d a a d b c a a a
0 24 d a d b c d b c a d b c d d b c a a a d b c d b
0 21 d a a a d b c a a d b c a a a d b c a d d
0 12 d a d b c d b c a d b c
0 9 d b c d d a d d d
0 12 b a b a b a d a d d c c
0 3 d d d
0 9 d d a d b c a a a
0 15 d d a d b c a a a d b c a d b
0 25 d a d b c a d b c a d b c a a a a d b c a d c c d
0 20 d a a a d b c a a d b c a a a d b c a d
0 44 a a d b c a d b c d b c d b c d b c a d b c a a d b c a a d b c a d b c a a a d b c a a
0 10 d a a d b c a a a a
0 17 a a a a d b c a a a a d b c a a a
0 19 d d a d b c a a a d b c a d b c a d b
0 13 a a a a d b c d b c a d b
0 21 d b c a d b c a a a d b c a a a a d b c d
0 20 a a a a d b c a a a a d b c a d b c a a
0 21 d b c a d b c a a a d b c d b c a a a a d
0 57 a a a a d b c a a a a d b c d b c d b c a a d b c a d b c a a d b c a a a d b c d b c a a a a d b c a d b c a a d
0 40 a a a a d b c d b c a d b c a a d b c a a d b c a a a a d b c d b c a a a a d b
0 47 a a a a d b c d b c a d b c a a d b c a a d b c a a a a d b c d b c a a a a d b c a a a d b c
0 5 d a a a d
0 17 a a a a d b c a a d b c a a d b c
0 15 a a a d b c a d b c a a a d b
0 12 b a b a d a d d d d c c
0 41 a a d b c a d b c d b c d b c d b c a d b c a a d b c a a d b c a d b c a a a d b
0 54 a a a a d b c d b c a d b c a a d b c a a d b c a a a a d b c d b c a a a a d b c a a a d b c d a d d c c d
0 19 a a a a d b c a a a a d b c d b c d b
0 10 a a a a d b c d b c
0 51 a a a a d b c d b c a d b c a a d b c a a d b c a a a a d b c d b c a a a a d b c a a a d b c d a d d
0 13 b a b a b a b a d a c c d
0 14 d a a d b c a a d b c a a a
0 7 d d a d d c c
0 19 d a a d b c a a d b c a a a d b c d a
0 16 a a a d b c a d b c a a a d b c
0 8 d a a d b c a a
0 11 a d b c d b c a a a a
0 14 d b c a d b c a a a d b c d
0 13 a a a a d b c a a a a d b
0 24 d b c a d b c a a a d b c d b c a a a a d b c a
0 8 d d d a d d d c
0 2 b a
0 53 a a d b c a d b c d b c d b c d b c a d b c a a d b c a a d b c a d b c a a a d b c a a a a d b c a a d b
0 61 a a a a d b c a a a a d b c d b c d b c a a d b c a d b c a a d b c a a a d b c d b c a a a a d b c a d b c a a d b c a d
0 14 d a d b c d b c a d b c d d
0 23 a a a a d b c d b c a d b c a a d b c a a d b
0 11 b a b a b a b a d b c
0 23 d b c a d b c a a a d b c d b c a a a a d b c
0 12 d d a d b c a a a d b c
0 14 d b c a d b c a a a d b c a
0 41 a a a a d b c a a d b c a a d b c a d b c a d b c d a a a a d b c a d b c b c c d
0 46 a a a a d b c d b c a d b c a a d b c a a d b c a a a a d b c d b c a a a a d b c a a a d b
0 28 d b c a d b c a a a d b c d b c a a a a d b c a d b c a
0 27 d a d b c d b c a d b c d d b c a a a d b c d b c a d
0 11 b a b a b a d b c c d
0 51 a a a a d b c a a a a d b c d b c d b c a a d b c a d b c a a d b c a a a d b c d b c a a a a d b c a
0 10 d a a d b c a a d b
0 13 a a d b c a d b c d b c d
0 25 d b c a d b c a a a d b c d b c a a a a d b c a d
0 4 d b c a
0 27 a a a a d b c a d b c a d b c a a d b c a d d d d c c
0 15 a a a a d b c a d b c a d b c
0 6 d a a a d b
0 6 b a b a b a
0 7 a a a d b c a
0 4 d a a d
0 6 d b c a d b
0 5 d d a d b
0 5 d b c d d
0 10 d a a a d b c a a d
0 14 a a a a d b c d b c d a d d
0 10 d d a d b c a a a d
0 6 b a b a d b
0 10 a a a a d b c a a a
0 13 a a a a d b c a a d b c a
0 9 b a b a b a d c c
0 6 d d d a d d
0 63 a a a a d b c a a a a d b c d b c d b c a a d b c a d b c a a d b c a a a d b c d b c a a a a d b c a d b c a a d b c a d c c
0 9 d b c a a d b c a
0 5 d b c a d
0 38 a a a a d b c a a a a d b c d b c d b c a a d b c a d b c a a d b c a a a d
0 30 a a a a d b c d b c a d b c a a d b c a a d b c a a a a d b
0 13 d a d b c d b c a d b c d
0 28 a a a a d b c a a a a d b c a d b c a a d b c d a d d d
0 14 d d a d b c a a a d b c a d
0 18 d b c a a d b c a a a d b c a d b c
0 25 a a d b c a a a a d b c a d b c d b c a a a a d b
0 31 a a d b c a d b c d b c d b c d b c a d b c a a d b c a a d b
0 16 d b c a d b c a a a d b c d b c
0 37 a a d b c a d b c d b c d b c d b c a d b c a a d b c a a d b c a d b c a
0 24 a a a a d b c a a a a d b c a a a a d b c a a d
0 19 a a a d b c a d b c a a a d b c a a a
0 13 d d a a a d b c d a d c c
0 43 a a a a d b c a a a a d b c d b c d b c a a d b c a d b c a a d b c a a a d b c d b c
0 7 d d a d b c a
0 15 d b c a a d b c a a a d b c a
0 11 a a a a d b c d b c a
0 31 a a a a d b c a a d b c a a d b c a d b c a d b c d a a a a d
0 38 a a a a d b c a a d b c a a d b c a d b c a d b c d a a a a d b c a d b c b
0 15 d a a a a d b c a a d b c b c
0 36 d d a d b c a a a d b c a d b c a d b c a a a a d b c a a d b c c c c d
0 30 a a d b c a d b c d b c d b c d b c a d b c a a d b c a a d
0 15 a d b c d b c a a a a d b c c
0 4 d d a d
0 54 a a a a d b c a a a a d b c d b c d b c a a d b c a d b c a a d b c a a a d b c d b c a a a a d b c a d b c
0 25 d d a d b c a a a d b c a d b c a d b c a a a a d
0 8 b a b a b a b a
0 12 a d b c d b c a a a a d
0 27 d d a d b c a a a d b c a d b c a d b c a a a a d b c
0 50 a a a a d b c d b c a d b c a a d b c a a d b c a a a a d b c d b c a a a a d b c a a a d b c d a d
0 21 a a a a d b c a a d b c a a d b c a d b c
0 29 a a a a d b c a a a a d b c d b c d b c a a d b c a d b c
0 17 d a d b c a d b c a d b c a a a a
0 7 d a d b c d b
0 11 b a b a b a d c c c d
0 24 d a d b c a d b c a d b c a a a a d b c a d c c
0 24 a a a a d b c a a a a d b c d b c d b c a a d b
0 5 a d d d c
0 22 d b c a a d b c a a a d b c a d b c d a a d
0 6 d a d b c d
0 24 a a a a d b c a a d b c a a d b c a d b c a d d
0 14 a a d b c a a a a d b c a d
0 31 a a a a d b c a a a a d b c a d b c a a d b c d a d d d c c d
0 13 b a b a d a d d d d c c d
0 13 d b c a a d b c a a a d b
0 48 a a a a d b c d b c a d b c a a d b c a a d b c a a a a d b c d b c a a a a d b c a a a d b c d
0 11 b a d a d d d d c c d
0 24 a a a a d b c a a d b c a a d b c a d b c a d b
0 62 a a a a d b c a a a a d b c d b c d b c a a d b c a d b c a a d b c a a a d b c d b c a a a a d b c a d b c a a d b c a d c
0 23 d a d b c a d b c a d b c a a a a d b c a d c
0 46 a a d b c a d b c d b c d b c d b c a d b c a a d b c a a d b c a d b c a a a d b c a a a a
0 10 d d a a a d b c d a
0 13 a d b c d b c a a a a d b
0 47 a a a a d b c a a a a d b c d b c d b c a a d b c a d b c a a d b c a a a d b c d b c a a a a
0 8 b a b a b a d b
0 11 b a b a b a b a d a d
0 58 a a a a d b c a a a a d b c d b c d b c a a d b c a d b c a a d b c a a a d b c d b c a a a a d b c a d b c a a d b
0 18 d b c a d b c a a a d b c d b c a a
0 19 a a a a d b c a d b c a d b c a a d b
0 14 a d b c d b c a a a a d b c
0 11 d a a a d b c a a d b
0 17 a a a a d b c d b c a d b c a a d
0 24 d b c a d b c a a a d b c a a a a d b c d b c c
0 28 a a a a d b c d b c a d b c a a d b c a a d b c a a a a
0 18 a a a a d b c d b c d a d d d c c d
0 19 a a a a d b c a a d b c a a d b c a d
0 11 d a d b c a d b c a d
0 21 a a a d b c a d b c a a a d b c a a a d b
0 35 d b c a d b c a a a d b c d b c a a a a d b c a d b c a d b c d c c c
0 14 a a d b c a d b c d b c a d
0 15 a a a a d b c a a a a d b c d
0 8 a a d b c a d c
0 16 d a a d b c a a d b c a a a d b
0 11 b a b a d a d d c c d
0 9 a d b c d b c a a
0 19 d b c a d b c a a a d b c a a a a d b
0 22 a a a a d b c a a a a d b c a a a a d b c a
0 13 a a a d b c a d b c a a a
0 8 b a b a d b c c
0 32 a a d b c a a a a d b c a d b c d b c a a a a d b c a a a d b c
0 8 a a d b c d b c
0 16 a a a a d b c a a a a d b c d b
0 12 d a d b c a d b c a d b
0 5 d d a d d
0 16 a a a a d b c a d b c a d b c a
0 19 d a d b c d b c a d b c d d b c a a a
0 5 d d d d d
0 14 d d d a a a a d b c a d d d
0 22 a a a a d b c a d b c a d b c a a d b c a d
0 31 d b c a d b c a a a d b c d b c a a a a d b c a d b c a d b c
0 8 b a b a b a d c
0 8 d d a d b c a a
0 6 d d d a d c
0 8 d d a d d c c d
0 20 a a a a d b c d b c a d b c a a d b c a
0 6 b a d c c c
0 11 d a d b c d b c a d b
0 11 a a a a d b c a a d b
0 32 d d a d b c a a a d b c a d b c a d b c a a a a d b c a a d b c
0 9 d b c a d b c a a
0 53 a a a a d b c a a a a d b c d b c d b c a a d b c a d b c a a d b c a a a d b c d b c a a a a d b c a d b
0 19 a a a a d b c a a a a d b c a a a a d
0 20 d a a d b c a a d b c a a a d b c d a c
0 30 a a d b c a a a a d b c a d b c d b c a a a a d b c a a a d
0 11 d b c d d a d d d c c
0 5 d d a d c
0 4 d b c d
0 29 d b c a d b c a a a d b c d b c a a a a d b c a d b c a d
0 19 a a a a d b c a a a a d b c a d b c a
0 10 a a a a d b c a a d
0 18 d d a d b c a a a d b c a d b c a d
0 16 d a a a d b c a a d b c a a a d
0 3 a d b
0 33 a a a a d b c d b c a d b c a a d b c a a d b c a a a a d b c d b
0 22 d a a a d b c a a d b c a a a d b c a d d d
0 6 d a a a a d
0 4 d d a a
0 10 b a b a b a b a d b
0 6 d d d a a a
0 9 a a a a d b c d b
0 17 d b c a d b c a a a d b c a a a a
0 11 d b c a d b c a a a d
0 18 d a d b c a d b c a d b c a a a a d
0 10 a a a d b c a d b c
0 4 b c c d
0 31 d d a d b c a a a d b c a d b c a d b c a a a a d b c a a d b
0 2 d b
0 30 a a a a d b c a a d b c a a d b c a d b c a d b c d a a a a
0 24 a a d b c a a a a d b c a d b c d b c a a a a d
0 21 a a a a d b c a a a a d b c a d b c a a d
0 11 a a d b c a a a a d b
0 23 a a d b c a a a a d b c a d b c d b c a a a a
0 36 a a d b c a d b c d b c d b c d b c a d b c a a d b c a a d b c a d b c
0 19 a a d b c a d b c d b c a d b c d d a
0 10 b a b a b a d a d d
0 6 a d d c c d
0 15 d a d b c a d b c a d b c a a
0 27 a a d b c a a a a d b c a d b c d b c a a a a d b c a
0 20 d a a d b c a a a a d b c a a d b c d d
0 20 a a a a d b c a a d b c a a d b c a d b
0 22 a a d b c a d b c d b c d b c d b c a d b c
0 26 a a a a d b c a a d b c a a d b c a d b c a d d c c
0 16 b a b a b a b a d a d d d c c d
0 26 a a a a d b c a a d b c a a d b c a d b c a d b c d
0 6 d d a a a d
0 14 d a a a a d b c a a d b c b
0 14 a a a d b c a d b c a a a d
0 20 a a d b c a a a a d b c a d b c d b c a
0 7 b a b a d b c
0 27 a a a a d b c a a a a d b c d b c d b c a a d b c a d
0 11 a a a a d b c a a a a
0 31 a a d b c a a a a d b c a d b c d b c a a a a d b c a a a d b
0 25 a a a a d b c a a a a d b c d b c d b c a a d b c
0 3 a c c
0 21 d a d b c a d b c a d b c a a a a d b c a
0 12 d b c d d a d d d c c d
0 8 d b c a d b c a
0 12 a a a a d b c d b c d a
0 14 a a a a d b c a d b c a d b
0 40 a a a a d b c a a d b c a a d b c a d b c a d b c d a a a a d b c a d b c b c c
0 13 a a a a d b c d b c d a d
0 8 d a a a d b c a
0 45 a a d b c a d b c d b c d b c d b c a d b c a a d b c a a d b c a d b c a a a d b c a a a
0 10 b a b a b a d b c c
0 32 a a d b c a d b c d b c d b c d b c a d b c a a d b c a a d b c
0 12 b a b a b a b a d c c c
0 8 b a b a d a d c
0 24 d a a d b c a a a a d b c a a d b c d d b c c d
0 23 d b c a d b c a a a d b c a a a a d b c d b c
0 20 a a d b c a d b c d b c d b c d b c a d
0 24 a a d b c a d b c d b c d b c d b c a d b c a a
0 16 a a a a d b c d b c d a d d d c
0 20 d a d b c d b c a d b c d d b c a a a d
0 10 d b c d d a d d d c
0 23 d a a a d b c a a d b c a a a d b c a d d d c
0 15 b a b a b a b a d a d d d d c
0 51 a a d b c a d b c d b c d b c d b c a d b c a a d b c a a d b c a d b c a a a d b c a a a a d b c a a
0 55 a a d b c a d b c d b c d b c d b c a d b c a a d b c a a d b c a d b c a a a d b c a a a a d b c a a d b c b
0 23 a a a d b c a d b c a a a d b c a a a d b c a
0 26 a a a a d b c a a a a d b c a a a a d b c a a d b c
0 8 b a d a d d d d
0 12 a a a a d b c a a d b c
0 17 d b c a d b c a a a d b c d b c a
0 3 b a d
0 9 a a d b c a d b c
0 18 a a a a d b c a a a a d b c a d b c
0 34 a a d b c a d b c d b c d b c d b c a d b c a a d b c a a d b c a d
0 14 a a d b c a d b c d b c d b
0 11 d a a a a d b c a a d
0 30 d b c a a d b c a a a d b c a d b c d a a d b c d a d d c c
0 11 b a b a b a d a d d c
0 21 d a a d b c a a d b c a a a d b c d a c c
0 17 d a a d b c a a a a d b c a a d b
0 16 a a d b c a d b c d b c a d b c
0 18 d a a d b c a a a a d b c a a d b c
0 4 d d b c
0 7 a d b c d b c
0 49 a a d b c a d b c d b c d b c d b c a d b c a a d b c a a d b c a d b c a a a d b c a a a a d b c
0 44 a a a a d b c d b c a d b c a a d b c a a d b c a a a a d b c d b c a a a a d b c a a a
0 16 d d d a a a a d b c a d d d d c
0 1 b
0 30 d b c a d b c a a a d b c d b c a a a a d b c a d b c a d b
0 48 a a d b c a d b c d b c d b c d b c a d b c a a d b c a a d b c a d b c a a a d b c a a a a d b
0 10 b a d a d d d d c c
0 3 b c c
0 39 a a d b c a d b c d b c d b c d b c a d b c a a d b c a a d b c a d b c a a a
0 10 b a b a b a d a d c
0 25 a a a a d b c a a d b c a a d b c a d b c a d b c
0 5 d b c a a
0 3 d c c
0 2 b c
0 9 d a a d b c a a d
0 20 a a a a d b c a a a a d b c a a a a d b
0 7 d a a a a d b
0 5 b a d a d
0 2 a c
0 2 a a
0 12 a a a a d b c d b c a d
0 4 b a d c
0 18 a a d b c a d b c d b c d b c d b c
0 6 d d a d b c
0 25 d b c a d b c a a a d b c a a a a d b c d b c c d
0 6 a d b c d b
0 9 d d d a d d d c c
0 56 a a a a d b c a a a a d b c d b c d b c a a d b c a d b c a a d b c a a a d b c d b c a a a a d b c a d b c a a
0 29 a a a a d b c a a d b c a a d b c a d b c a d b c d a a a
0 12 d a a d b c a a d b c a
0 22 a a a d b c a d b c a a a d b c a a a d b c
0 12 a a a a d b c a d b c a
0 13 a a d b c a a a a d b c a
0 20 a a d b c a d b c d b c a d b c d d a c
0 15 a a a a d b c a a a a d b c a
0 11 b a b a b a d a d c c
0 6 b a b a d c
0 4 b a b a
0 13 d a a d b c a a d b c a a
0 7 b a b a d a c
0 6 d a a d b c
0 6 d d d c c c
0 23 a a a a d b c a a a a d b c a a a a d b c a a
0 22 a a d b c a a a a d b c a d b c d b c a a a
0 7 b a d a d c c
0 18 a a a a d b c a a d b c a a d b c a
0 22 a a a a d b c a a a a d b c a d b c a a d b
0 5 b a d b c
0 4 d a c c
0 10 a a a a d b c a d b
0 24 d b c a a d b c a a a d b c a d b c d a a d b c
0 28 d a d b c d b c a d b c d d b c a a a d b c d b c a d c
0 8 d a d b c a d b
0 21 d d a d b c a a a d b c a d b c a d b c a
0 14 d a d b c a d b c a d b c a
0 9 b a d a d d d d c
0 6 d d a d d c
0 23 a a a a d b c a a d b c a a d b c a d b c a d
0 56 a a d b c a d b c d b c d b c d b c a d b c a a d b c a a d b c a d b c a a a d b c a a a a d b c a a d b c b c
0 35 a a d b c a d b c d b c d b c d b c a d b c a a d b c a a d b c a d b
0 49 a a a a d b c d b c a d b c a a d b c a a d b c a a a a d b c d b c a a a a d b c a a a d b c d a
0 36 a a a a d b c a a d b c a a d b c a d b c a d b c d a a a a d b c a d b
0 9 b a b a d a d d d
0 4 a a a a
0 20 a a a d b c a d b c a a a d b c a a a d
0 18 a d b c d b c a a a a d b c c c c d
0 20 d b c a d b c a a a d b c a a a a d b c
0 3 d a d
0 11 b a b a b a d a d d d
0 20 d d a d b c a a a d b c a d b c a d b c
0 25 a a a a d b c a a a a d b c a a a a d b c a a d b
0 18 a a a a d b c d b c a d b c a a d b
0 6 d d b c c d
0 33 a a d b c a d b c d b c d b c d b c a d b c a a d b c a a d b c a
0 15 a a d b c a d b c d b c a d b
0 15 b a b a b a b a d a d d d c c
0 5 a a a d b
0 25 a a a a d b c a a d b c a a d b c a d b c a d d c
0 11 d d a a a d b c d a d
0 26 a a a d b c a d b c a a a d b c a a a d b c a d b c
0 8 a a d b c a a a
0 32 d b c a d b c a a a d b c d b c a a a a d b c a d b c a d b c d
0 13 b a b a b a d a d d c c d
0 17 d d d a a a a d b c a d d d d c c
0 13 b a b a b a b a d c c c d
0 9 b a b a b a d b c
0 1 d
0 42 a a d b c a d b c d b c d b c d b c a d b c a a d b c a a d b c a d b c a a a d b c
0 52 a a a a d b c d b c a d b c a a d b c a a d b c a a a a d b c d b c a a a a d b c a a a d b c d a d d c
0 28 a a a a d b c a a d b c a a d b c a d b c a d b c d a a
0 12 d a a a a d b c a a d b
0 12 a a d b c a a a a d b c
0 30 a a a a d b c a a a a d b c a a a a d b c a a d b c b c c d
0 12 b a b a d a d d d c c d
0 30 a a a a d b c a a a a d b c d b c d b c a a d b c a d b c a
0 33 a a a a d b c a a d b c a a d b c a d b c a d b c d a a a a d b c
0 8 d d a a a d b c
0 8 d d d a a a a d
0 22 d a a d b c a a d b c a a a d b c d a c c d
0 53 a a a a d b c d b c a d b c a a d b c a a d b c a a a a d b c d b c a a a a d b c a a a d b c d a d d c c
0 23 a a a a d b c a a a a d b c a d b c a a d b c
0 13 d a a a d b c a a d b c a
0 34 a a a a d b c a a d b c a a d b c a d b c a d b c d a a a a d b c a
0 2 d c
0 3 a d d
0 19 d a a a d b c a a d b c a a a d b c a
0 21 a a a a d b c a d b c a d b c a a d b c a
0 23 d d a d b c a a a d b c a d b c a d b c a a a
0 36 d b c a d b c a a a d b c d b c a a a a d b c a d b c a d b c d c c c d
0 22 d a d b c d b c a d b c d d b c a a a d b c
0 5 d d d a d
0 48 a a a a d b c a a a a d b c d b c d b c a a d b c a d b c a a d b c a a a d b c d b c a a a a d
0 17 a a a a d b c a d b c a d b c a a
0 37 a a a a d b c a a d b c a a d b c a d b c a d b c d a a a a d b c a d b c
0 18 a a a a d b c a a a a d b c d b c d
0 28 a a a a d b c a d b c a d b c a a d b c a d d d d c c d
0 16 d b c a a d b c a a a d b c a d
0 8 b a b a d c c c
0 12 d d d a a a a d b c a d
0 11 d a a d b c a a a a d
0 28 a a a a d b c a a a a d b c a a a a d b c a a d b c b c
0 3 a a a
0 10 d a d b c d b c a d
0 9 a a d b c d b c c
0 16 a a d b c a d b c d b c d b c d
0 23 a a d b c a d b c d b c d b c d b c a d b c a
0 7 d d d a a a a
0 52 a a a a d b c a a a a d b c d b c d b c a a d b c a d b c a a d b c a a a d b c d b c a a a a d b c a d
0 4 d d d c
0 7 d a a d b c a
0 12 b a b a b a d a d d d c
0 16 a a a a d b c a a a a d b c a a
0 30 d d a d b c a a a d b c a d b c a d b c a a a a d b c a a d
0 26 a a a a d b c a d b c a d b c a a d b c a d d d d c
0 35 a a a a d b c a a a a d b c d b c d b c a a d b c a d b c a a d b c a
0 40 a a d b c a d b c d b c d b c d b c a d b c a a d b c a a d b c a d b c a a a d
0 30 a a a a d b c a a a a d b c a d b c a a d b c d a d d d c c
0 41 a a a a d b c a a a a d b c d b c d b c a a d b c a d b c a a d b c a a a d b c d
0 9 d a a a a d b c a
0 26 a a d b c a a a a d b c a d b c d b c a a a a d b c
0 22 d d a d b c a a a d b c a d b c a d b c a a
0 7 a a d b c a a
0 43 a a a a d b c d b c a d b c a a d b c a a d b c a a a a d b c d b c a a a a d b c a a
0 9 a a a d b c a d b
0 12 a a a d b c a d b c a a
0 9 d a a a d b c a a
0 6 b a d a d c
0 11 b a b a b a b a d c c
0 9 d a d b c d b c a
0 39 a a a a d b c a a a a d b c d b c d b c a a d b c a d b c a a d b c a a a d b
0 4 a a a d
0 32 a a a a d b c a a d b c a a d b c a d b c a d b c d a a a a d b
0 5 d d d a c
0 15 a a d b c a d b c d b c d b c
0 33 a a a a d b c a a a a d b c d b c d b c a a d b c a d b c a a d b
0 18 d a a d b c a a d b c a a a d b c d
0 16 a a a a d b c a a a a d b c a d
0 64 a a a a d b c a a a a d b c d b c d b c a a d b c a d b c a a d b c a a a d b c d b c a a a a d b c a d b c a a d b c a d c c d
0 6 b a b a d a
0 25 a a d b c a d b c d b c d b c d b c a d b c a a d
0 30 a a a d b c a d b c a a a d b c a a a d b c a d b c c c c d
0 49 a a a a d b c a a a a d b c d b c d b c a a d b c a d b c a a d b c a a a d b c d b c a a a a d b
0 45 a a a a d b c d b c a d b c a a d b c a a d b c a a a a d b c d b c a a a a d b c a a a d
0 11 b a b a d a d d d d c
0 28 d d a d b c a a a d b c a d b c a d b c a a a a d b c a
0 5 d d a a a
0 12 a a d b c a d b c d b c
0 8 d d d a d c c d
0 7 b a b a d a d
0 14 a a a a d b c a a d b c a a
0 8 b a b a b a d a
0 34 a a a a d b c a a a a d b c d b c d b c a a d b c a d b c a a d b c
0 25 a a a a d b c d b c a d b c a a d b c a a d b c a
0 15 d d d a a a a d b c a d d d d
0 7 d d d a c c d
0 15 d b c a d b c a a a d b c a a
0 19 d a a d b c a a a a d b c a a d b c d
0 12 d b c a d b c a a a d b
0 27 d b c a a d b c a a a d b c a d b c d a a d b c d a d
0 3 d d b
0 5 a a d b c
0 17 d a a d b c a a d b c a a a d b c
