466 6
1 0 
1 4 e e c e
1 1 b
1 20 b b b e c f d e a b b c c b b b b a e c
1 3 c c c
1 1 c
1 2 e e
1 8 e c f d e a e e
1 16 c c f d e a b b b e c b b a c c
1 12 e e b b b b c c f d e a
1 1 e
1 13 b b b b c c b b b b a e e
1 14 b c c f d e a c c f d e a e
1 26 e b b b e c b b b b b b b b a e c b b b b b b b b a
1 4 e c e e
1 23 b c c f d e a e b b b b e c b b b b b b b b a
1 4 e e e e
1 3 e e e
1 13 e c b b b b c c b b b b a
1 12 e e c b b a b b b e c a
1 4 c e e e
1 4 e c c c
1 3 c e e
1 14 b b c c a c e c b b b b a e
1 7 e b b e c a e
1 14 c c a e b b b b c c f d e a
0 9 c e b b b b e c f
0 6 c b b e c f
0 4 e e b b
0 13 e b e c f d e a b b b e c
0 6 c c e b b b
0 10 e c f d e a c b b b
0 4 e b c c
0 4 b b e c
0 3 b e c
0 13 e b c c f d e a b c c f d
0 16 e b e c f d e a b b b e c f d e
0 10 e b b b b c c b b b
0 9 e c c b c c f d e
0 4 c c f d
0 9 c c b b c c f d e
0 8 b b e c b b b b
0 7 b b b c c b b
0 9 e c b b b b c c b
0 4 c c e b
0 11 b b b c c b b b b b b
0 7 b b b b e c f
0 14 e c f d e a c b b b b c c f
0 4 c b b e
0 4 c b b b
0 3 c b e
0 6 e b b b b e
0 4 e c f d
0 12 e e b b b e c f d e a b
0 6 c b e c f d
0 18 e c b b e c f d e a b b b e c f d e
0 5 e c b b b
0 6 c c c f d e
0 6 e b b c c f
0 5 e c b c c
0 7 c c b b b b b
0 7 e c b b e c f
0 9 b b b b e c b b b
0 6 e e b b b e
0 5 b b b e c
0 16 b b c c b b b b b b b b a e e b
0 8 e b b b b c c b
0 12 b e c f d e a b b b c c
0 9 c c e b b b c c f
0 14 e e b b b e c f d e a b b e
0 21 b b b b e c b b b b b b b b a e c b b b b
0 11 b e c f d e a b b b c
0 5 b c c b b
0 3 e b c
0 5 b b e c b
0 9 e c b b e c f d e
0 5 c c b b c
0 11 b c c b b b b b b b b
0 3 c b b
0 4 e e c b
0 7 e c b c c b b
0 5 e c b b e
0 16 b b e c f d e a e e b c c b b b
0 5 e e b b b
0 6 b b b e c b
0 9 e c b b e c b b b
0 3 e b e
0 18 b c c b b b b b b b b a e e c b b b
0 3 c c b
0 11 b b b b e c b b b b b
0 5 b e c f d
0 12 e c b b e c f d e a b b
0 18 e c e c b b b b b b b b a c c f d e
0 9 e c f d e a c b b
0 5 c e b b b
0 16 c c b b b b a b b b b e c b b b
0 14 e c b b b b c c b b b b b b
0 9 e c e b c c f d e
0 19 c c b b b b a b b b b e c b b b b b b
0 11 e b e c f d e a b b b
0 7 e c b b b b c
0 11 e b c c f d e a b c c
0 8 e e b b b b e c
0 14 b b b b e c f d e a b e c f
0 27 b b c c b b b b b b b b a e e b b b c c b b b b b b b
0 16 c c f d e a e b b e c b b b b b
0 10 e c e c b b b b b b
0 17 e c e c b b b b b b b b a c c f d
0 9 c b b b b c c f d
0 8 c e b b b b e c
0 5 e c c b c
0 10 b c c b b b b b b b
0 20 b b b b e c f d e a b e c f d e a e c f
0 10 e c f d e a e b c c
0 7 b b e c b b b
0 5 e b b b e
0 13 e b b b b c c b b b b a b
0 18 b b b b e c b b b b b b b b a e c b
0 4 e c b c
0 13 b b b c c b b b b b b b b
0 8 c b b e c f d e
0 12 e c e c b b b b b b b b
0 11 c c b b b b a b b b b
0 17 b c c b b b b b b b b a e e c b b
0 5 b b e c f
0 7 e e c b e c b
0 8 c b b b b c c f
0 4 b b b b
0 11 b e c b b b b b b b b
0 9 c e b b c c f d e
0 7 e c e b c c f
0 5 c b b b b
0 6 e b b b e c
0 11 c e b b b b e c f d e
0 18 b b c c b b b b b b b b a e e b b b
0 4 c e b b
0 11 e c f d e a e b c c b
0 6 c b c c f d
0 21 b c c b b b b b b b b a e e c b b b b b b
0 22 b b c c b b b b b b b b a e e b b b c c b b
0 4 e c b b
0 13 c c f d e a e b b e c b b
0 7 c b b e c f d
0 4 b c c f
0 5 c c b b b
0 21 b b c c b b b b b b b b a e e b b b c c b
0 17 c c f d e a e b b e c b b b b b b
0 16 e c b b b b c c b b b b b b b b
0 5 e b c c b
0 6 e e b b b c
0 10 e e b b b c c b b b
0 7 e b e c f d e
0 21 b e c f d e a b b b c c b b b b a e b e c
0 12 b b c c b b b b b b b b
0 19 b e c f d e a b b b c c b b b b a e b
0 9 b b b c c b b b b
0 7 c b e c f d e
0 16 e b b b b c c b b b b a b c c f
0 9 c b b b b e c f d
0 22 b e c f d e a b b b c c b b b b a e b e c f
0 3 e b b
0 5 e b e c b
0 13 b b b b e c f d e a b e c
0 6 e c c b c c
0 10 c c b b b b a b b b
0 5 c c c f d
0 12 b b b e c b b b b b b b
0 4 b e c f
0 9 e b e c f d e a b
0 8 e c b b e c f d
0 7 c e b b b b e
0 23 b b c c b b b b b b b b a e e b b b c c b b b
0 8 e c f d e a c b
0 9 b e c b b a e c f
0 6 b c c f d e
0 6 b b e c b b
0 9 b b b b e c f d e
0 13 c c f d e a b b e c f d e
0 20 b b b b e c b b b b b b b b a e c b b b
0 9 b b b b c c b b b
0 15 e e b b b e c f d e a b b e c
0 10 e e b b b e c f d e
0 7 e b c c b b b
0 14 b b e c f d e a e e b c c b
0 11 e c b b b b c c b b b
0 10 c e b b b b e c f d
0 9 e b b b b e c b b
0 3 b b e
0 8 b b b e c f d e
0 8 b e c f d e a b
0 4 b b c c
0 19 b b e c f d e a e e b c c b b b b b b
0 8 b b b e c b b b
0 6 e b e c b b
0 8 b c c b b b b b
0 7 b b c c b b b
0 7 e b c c f d e
0 10 b b b b c c b b b b
0 22 b b b b e c f d e a b e c f d e a e c f d e
0 5 b b b b c
0 10 e b c c f d e a b c
0 4 c c c f
0 4 b b b c
0 11 e b b b b c c b b b b
0 8 e c b b a b b b
0 15 b b b b e c f d e a b e c f d
0 14 e b c c f d e a b c c f d e
0 7 e e b b b e c
0 6 e c e b c c
0 20 b e c f d e a b b b c c b b b b a e b e
0 23 b c c b b b b b b b b a e e c b b b b b b b b
0 10 e e c b e c b b b b
0 12 b b b b e c f d e a b e
0 9 b e c f d e a b b
0 12 c c f d e a e b b e c b
0 5 c c e b b
0 6 c c b b c c
0 6 c e b b b e
0 6 e b c c b b
0 5 e c f d e
0 15 b e c f d e a b b b c c b b b
0 8 c c b b b b a b
0 6 c e b b b b
0 13 b b b b e c b b b b b b b
0 7 c c b b c c f
0 7 c e b b c c f
0 10 b e c b b b b b b b
0 12 e c b b e c b b b b b b
0 3 c c f
0 6 e c b b a b
0 7 c c f d e a b
0 6 c b b b b e
0 9 e b c c f d e a b
0 4 c b e c
0 6 b b b e c f
0 14 b e c f d e a b b b c c b b
0 8 b b b b e c f d
0 7 e c b b e c b
0 16 e c e c b b b b b b b b a c c f
0 14 c c b b b b a b b b b e c b
0 16 e c f d e a c b b b b c c f d e
0 16 b b b b e c f d e a b e c f d e
0 6 b b b b e c
0 4 b c c b
0 4 e c c b
0 6 e e b b b b
0 11 b b c c b b b b b b b
0 22 b b b b e c b b b b b b b b a e c b b b b b
0 8 c e b b c c f d
0 11 e e b b b c c b b b b
0 8 e c b b e c b b
0 8 b b b b c c b b
0 9 b b b e c b b b b
0 12 e c f d e a e b c c b b
0 6 b b b c c b
0 8 e c e c b b b b
0 13 e c b b e c f d e a b b b
0 4 e b b b
0 4 e b b c
0 17 e b b b b c c b b b b a b c c f d
0 3 e e b
0 13 c c b b b b a b b b b e c
0 7 b b b b c c b
0 19 b b b b e c b b b b b b b b a e c b b
0 8 e b b b b e c b
0 7 e b b b b c c
0 15 e c b b b b c c b b b b b b b
0 3 e c b
0 5 b b b b e
0 8 c c e b b b c c
0 12 b b b b e c b b b b b b
0 5 e b b c c
0 19 b b c c b b b b b b b b a e e b b b c
0 17 b b e c f d e a e e b c c b b b b
0 20 b b c c b b b b b b b b a e e b b b c c
0 8 e c b b b b c c
0 7 b e c b b b b
0 17 e c b b e c f d e a b b b e c f d
0 14 e b b b b c c b b b b a b c
0 23 b b b b e c b b b b b b b b a e c b b b b b b
0 11 b e c b b a e c f d e
0 5 b e c b b
0 7 c b c c f d e
0 4 b e c b
0 7 e e b b b c c
0 7 e c c b c c f
0 6 b e c f d e
0 6 b e c b b b
0 11 e c b b a b b b c c f
0 5 e b c c f
0 9 e c e c b b b b b
0 5 e b b b b
0 12 b b e c f d e a e e b c
0 8 e c b c c b b b
0 14 e c b b e c f d e a b b b e
0 5 c b b e c
0 12 e b b b b c c b b b b b
0 5 b c c f d
0 12 e c b b a b b b c c f d
0 7 c b b b b e c
0 2 b b
0 4 e e b c
0 10 b b b c c b b b b b
0 5 b b c c b
0 5 e c e b c
0 19 e e b b b e c f d e a b b e c b b b b
0 13 e c b b a b b b c c f d e
0 17 e e b b b e c f d e a b b e c b b
0 10 b e c b b a e c f d
0 13 b e c f d e a b b b c c b
0 4 c c b b
0 12 e b e c f d e a b b b e
0 9 c c f d e a e b b
0 18 e e b b b e c f d e a b b e c b b b
0 20 b c c b b b b b b b b a e e c b b b b b
0 22 b c c b b b b b b b b a e e c b b b b b b b
0 16 b e c f d e a b b b c c b b b b
0 14 e c b b e c b b b b b b b b
0 9 e e b b b c c b b
0 23 b e c f d e a b b b c c b b b b a e b e c f d
0 6 b b b b c c
0 13 b b e c f d e a e e b c c
0 15 e b e c f d e a b b b e c f d
0 5 e c e c b
0 13 e e b b b e c f d e a b b
0 18 e b b b b c c b b b b a b c c f d e
0 10 c c e b b b c c f d
0 10 c c f d e a e b b e
0 10 b b b b e c b b b b
0 15 e b b b b c c b b b b a b c c
0 2 c b
0 8 e b b c c f d e
0 14 e b e c f d e a b b b e c f
0 13 e b b b b c c b b b b b b
0 2 b c
0 5 e b e c f
0 8 c e b b b e c b
0 11 e c f d e a c b b b b
0 6 c b b b b c
0 21 b b e c f d e a e e b c c b b b b b b b b
0 6 e c b b b b
0 16 e c b b e c f d e a b b b e c f
0 4 c b c c
0 8 e c c b c c f d
0 5 c e b b c
0 11 e c b b e c b b b b b
0 2 e b
0 8 c c f d e a b b
0 15 e c f d e a c b b b b c c f d
0 8 b e c b b b b b
0 7 b b b e c f d
0 24 b b c c b b b b b b b b a e e b b b c c b b b b
0 28 b b c c b b b b b b b b a e e b b b c c b b b b b b b b
0 19 b c c b b b b b b b b a e e c b b b b
0 14 b b b b e c b b b b b b b b
0 7 c e b b b e c
0 9 c c b b b b a b b
0 8 e b c c b b b b
0 10 b b b e c b b b b b
0 21 b b b b e c f d e a b e c f d e a e c f d
0 3 b b c
0 8 e e b b b c c b
0 13 e c b b e c b b b b b b b
0 11 e c e c b b b b b b b
0 5 c b e c f
0 8 b b b c c b b b
0 9 e e b b b e c f d
0 6 e c b c c b
0 10 c c f d e a b b e c
0 6 e b b b b c
0 15 b b e c f d e a e e b c c b b
0 3 e c f
0 9 e c b b a b b b c
0 10 e b b b b e c b b b
0 13 e c b b b b c c b b b b b
0 6 c e b b c c
0 11 b b b b e c f d e a b
0 16 e e b b b e c f d e a b b e c b
0 8 b b c c b b b b
0 5 b b b c c
0 6 b c c b b b
0 8 c c f d e a e b
0 10 e c b b e c b b b b
0 11 c c f d e a b b e c f
0 15 c c f d e a e b b e c b b b b
0 18 b b e c f d e a e e b c c b b b b b
0 8 e c f d e a e b
0 6 e b c c f d
0 3 c e b
0 9 b e c b b b b b b
0 9 b c c b b b b b b
0 13 b b b e c b b b b b b b b
0 6 b b c c b b
0 3 c b c
0 9 e c f d e a e b c
0 10 e b e c f d e a b b
0 17 c c b b b b a b b b b e c b b b b
0 8 e e c b e c b b
0 12 c c f d e a b b e c f d
0 6 b b e c f d
0 7 e b b c c f d
0 5 e e b c c
0 6 e c b b e c
0 16 b c c b b b b b b b b a e e c b
0 6 e e c b e c
0 10 b e c f d e a b b b
0 24 b e c f d e a b b b c c b b b b a e b e c f d e
0 11 e b b b b e c b b b b
0 9 e c b c c b b b b
0 8 c c b b c c f d
0 8 c c b b b b b b
0 9 c e b b b e c b b
0 14 c c f d e a e b b e c b b b
0 5 e e c b e
0 11 b b b e c b b b b b b
0 4 e b e c
0 26 b b c c b b b b b b b b a e e b b b c c b b b b b b
0 11 b b e c f d e a e e b
0 7 c c e b b b c
0 15 c c b b b b a b b b b e c b b
0 6 e b e c f d
0 20 b b e c f d e a e e b c c b b b b b b b
0 13 e c f d e a c b b b b c c
0 8 e c e b c c f d
0 9 e e c b e c b b b
0 4 b b b e
0 3 b c c
0 11 c c e b b b c c f d e
0 12 e b c c f d e a b c c f
0 5 c c f d e
0 15 e c b b e c f d e a b b b e c
0 9 b b c c b b b b b
0 7 e c e c b b b
0 6 c c b b b b
0 10 e c b b b b c c b b
0 12 e c f d e a c b b b b c
0 7 b c c b b b b
0 7 e c b b a b b
0 10 c b b b b c c f d e
0 12 c c b b b b a b b b b e
0 11 e c b b e c f d e a b
0 12 b b b c c b b b b b b b
0 18 c c b b b b a b b b b e c b b b b b
0 10 c b b b b e c f d e
0 2 b e
0 7 e e b b b b e
0 6 e c e c b b
0 8 e e b b b e c f
0 4 e c e b
0 25 b b c c b b b b b b b b a e e b b b c c b b b b b
0 7 e b b b b e c
0 9 c c f d e a b b e
0 5 c b c c f
0 8 b b b b e c b b
0 10 e c b b a b b b c c
0 7 c b b b b c c
0 11 c c f d e a e b b e c
0 17 b b c c b b b b b b b b a e e b b
0 12 e c b b b b c c b b b b
0 7 b b b b e c b
0 7 b b e c f d e
0 8 c b b b b e c f
0 7 b b b e c b b
0 10 b b c c b b b b b b
0 9 e b b b b c c b b
0 3 b b b
