170 8
1 0 
1 19 h h b d a h c a h e a e e a e g g h b
1 4 h c a h
1 2 h b
1 9 e g g g g h b h b
1 24 d d b d b d h b d b d h b g g g g g g g g g g g
1 26 d a a c a h c a h c g g e a e e a e e a e e g g g g
1 9 d a a a h c g h b
1 7 a h b h b h b
1 14 a b d b d d h a a b d b d d
1 34 e a e e e a e e d d d e a e e d d e d d d d e a e e a e e e a e h b
1 18 c a h a h e a e e d e d g g g g g g
1 33 h b h b e d e a e e d e a e e d d d e a e e d d d e d d d d g g g
1 30 d a d b d b d h e d d e e a e h b e d d e a e e d d d e a e
1 36 d h a a d b d d b d a h d a a g g g g g g e a e e d e d d d g g h b h b
1 9 a h a h c h b h b
1 50 b d a b d b d d d a h d a a d a a d a a b d b d b d b d d b d d d b d d b d d a h a e h b e a e h b
1 70 a h d a a a h d a a a h d a a c b d b d a h e d d d e a e e a e e a e e d e a e e d e a e e d d d d e a e e a e g e a e e d e d e a e g g g
1 17 d a a a h d a a h a h d a a d a a
1 3 a d d
1 32 a h c a h a h d a a a h e d d g g e d d e e a e g g g g g g g g
1 22 d a a d a a a h d a a d a a d a a c h b h b
1 32 h c d a a d a a c a h d a a d a a e a e e d d e a e h b e a e e
1 38 a h h a h h a d d d b d a h g e a e e h b e d d d e a e e a e e a e e a e e
1 33 d h a d d d b d b d h a b d d b d b d e a e e d d e d d d g g g g
1 37 c a h c h a a e a e e d e d d g g e d d d e a e e a e e d d d d g g e a e
1 28 h h d d b d b d d a h b g g g g g g e a e e d d e a e e
1 29 a h b d b d d a a a h h b g g g g g g g e d e e a e e a e
1 30 d a g g g g g g g g g g e a e e d d e a e g g g g g g g g g
1 23 a d d b d e a e e a e e d e e a e e a e e d d
1 32 h h b d d b d h b e a e e d d d d e a e e d g g g g g g g g h b
1 4 a h h b
1 4 a a h b
1 10 h d d h b d d b d d
1 21 c d a a c a h c a h d a a c c a h h b h b
0 39 d b d d b d d d d d d d b d b d a b d a h b e a e e a e e d g g g g e e a e h
0 2 e a
0 10 a h a h a h d d d b
0 16 a h h h b d a h e a e e a e e a
0 1 b
0 2 d b
0 20 a h c a h d a a b d b d d b d d b d d b
0 7 h a h d b d b
0 3 h a b
0 22 e e a e e a e e d e d d e d d d d h b h b h
0 42 c a h d a a g e d d e d e d d e e a e e a e e e g g e a e e d d d d e d e e a e e a
0 20 e a e e a e e a e e a e e d d d e d e a
0 31 e a e e a e e a e e a e e d d d e d e a e g g e a e e a e e a
0 25 e a e e a e e a e e a e e d d d e d e a e g g e a
0 15 d a a a h d a a h b e a e e a
0 11 d b d a a b d d b d b
0 34 a h a h a h a h a h a h h b e d d d e d d d e d d d e a e e e d e a
0 22 b d b d b d a d d d d a c a h d a a a h e a
0 17 a h c a h d a a b d b d d b d d b
0 28 e a e e a e e a e e a e e d d d e d e a e g g e a e e a
0 21 d a a a h a h h b e a e e a e e a e h b h
0 18 d b d d b d d d d d d d b d b d a b
0 6 c a h b d b
0 12 c a h b d b d d d d d b
0 3 a d b
0 33 b d b d b d a d d d d a c a h d a a a h e a e e d d d e d d d e a
0 6 e e a e e a
0 11 d a a a h a h h b e a
0 23 a h a h c b d d b d b d b d b d d d h b g g h
0 14 a h c a h d a a b d b d d b
0 28 a h a h a h a h a h a h h b e d d d e d d d e d d d e a
0 9 a h c a h d a a b
0 3 d d b
0 31 a h c a h d a a b d b d d b d d b d d b d h b g e d d d h b h
0 8 h b e a e g e a
0 24 a h c c a h c h h a h b h b g g g g g g g e e a
0 18 e e a e e a e e d e d d e d d d d h
0 3 h b h
0 8 e a e e a e e a
0 11 a h a h c b d d b d b
0 26 h b e a e g e a e e d d e a e e d d e d d d d g g h
0 10 c d a a a h c h b h
0 19 d a a b d b d b d b d d b d g g g e a
0 13 g g e d d d e d d d d e a
0 12 a h a h a h d d d b d b
0 25 d a a b d b d b d b d d b d g g g e a e e a e e a
0 25 h d d a h d a a d a a e d d e a e e a e e d d d h
0 19 d a a a h a h h b e a e e a e e a e h
0 20 d a a a h d a a h b e a e e a e e d e a
0 5 a h h b h
0 13 a h c c a h c h h a h b h
0 8 d a a b d b d b
0 14 a d b d b d d h h b d b d b
0 9 a g e d d d e d h
0 13 d b d d b d d d d d d d b
0 24 d b d d b d d d d d d d b d b d a b d a h b e a
0 28 c a h d a a g e d d e d e d d e e a e e a e e e g g e a
0 5 h a h d b
0 8 a h c d d b d b
0 14 c a h b d b d d d d d b d b
0 39 c a h d a a g e d d e d e d d e e a e e a e e e g g e a e e d d d d e d e e a
0 21 c a h d a a g e d d e d e d d e e a e e a
0 37 d b d d b d d d d d d d b d b d a b d a h b e a e e a e e d g g g g e e a
0 23 b d h a h a h a h g g g g g g g e d e a e e a
0 18 c a h b d b d d d d d b d b d h d b
0 20 e e a e e a e e d e d d e d d d d h b h
0 8 a h h h b h b h
0 5 d b d d b
0 20 b d h a h a h a h g g g g g g g e d e a
0 6 a h c d d b
0 17 d b d a a b d d b d b d h b h b h
0 6 d a a b d b
0 29 a h c a h d a a b d b d d b d d b d d b d h b g e d d d h
0 32 g g e d d d e d d d d e a e g g g g g g e d d d e d d d e a e h
0 15 d b d d b d d d d d d d b d b
0 27 d b d d b d d d d d d d b d b d a b d a h b e a e e a
0 13 a h a h c b d d b d b d b
0 13 c c a h h d d d b d b d b
0 14 d a a a h a h h b e a e e a
0 10 a h h b g g g g e a
0 15 a h a h c b d d b d b d b d b
0 9 b d d d b d b d b
0 12 d a a a h d a a h b e a
0 6 a h c h d b
0 46 a h h h b d a h e a e e a e e a e e d d d e d d e d d e d d d e d g g e a e e d e d d d e a
0 53 a h h h b d a h e a e e a e e a e e d d d e d d e d d e d d d e d g g e a e e d e d d d e a e e d d d e a
0 6 a h a h c b
0 37 a h h h b d a h e a e e a e e a e e d d d e d d e d d e d d d e d g g e a
0 19 h d d a h d a a d a a e d d e a e e a
0 22 d a a b d b d b d b d d b d g g g e a e e a
0 11 c c a h h d d d b d b
0 23 d a a a h d a a h b e a e e a e e d e a e e a
0 12 a d b d b d d h h b d b
0 5 a d b d b
0 51 b d b d b d a d d d d a c a h d a a a h e a e e d d d e d d d e a e e e d d e d d g g g g e d d d e a
0 9 a h a h c b d d b
0 5 h b h b h
0 65 a h h h b d a h e a e e a e e a e e d d d e d d e d d e d d d e d g g e a e e d e d d d e a e e d d d e a e e d d g g g e d d e a
0 21 e a e e a e e d d g g g g g g g g g g e a
0 15 d b d a a b d d b d b d h b h
0 9 c c a h h d d d b
0 17 d a a a h a h h b e a e e a e e a
0 6 h b h b e a
0 14 h b e a e g e a e e d d e a
0 7 b d d d b d b
0 27 d a a a h d a a h b e a e e a e e d e a e e a e e e h
0 9 d b d a a b d d b
0 11 a h c a h d a a b d b
0 13 d a a b d b d b d b d d b
0 12 e d d d e d d d e d e a
0 7 h b g g g g h
0 11 e a e e a e e a e e a
0 4 h b e a
0 22 c h a h a h d a a a h a h g g g e d d d e a
0 3 e e a
0 30 g g e d d d e d d d d e a e g g g g g g e d d d e d d d e a
0 13 a h h h b d a h e a e e a
0 3 b d b
0 16 h d d a h d a a d a a e d d e a
0 5 b d b d b
0 27 a h c c a h c h h a h b h b g g g g g g g e e a e e a
0 17 c a h a h c a h d a a a h c h b h
0 10 a h h h b h b h b h
0 5 d d b d b
0 6 a h h h b h
0 11 a h c d d b d b d d b
0 28 e a e e a e e d d g g g g g g g g g g e a e g g g g g h
0 6 d b d a a b
0 4 d a a b
0 10 a h h h b d a h e a
0 45 e a e e a e e a e e a e e d d d e d e a e g g e a e e a e e a e e d d d g g g e d g g g h
0 18 c a h d a a g e d d e d e d d e e a
0 5 b d d d b
0 10 d a a b d b d b d b
0 5 e a e e a
