344 8
1 0 
1 15 c f h f f a a a a f a a f a a
1 13 e e f c b b a f h f e f h
1 7 b b a e e f c
1 18 e f c a b a a a a a b b b a a f h f
1 8 g a g a g a g a
1 8 g a g a g a c a
1 17 b b b b b e f c e f c c f h f a a
1 6 c f h f a a
1 23 b b e f c a b c f h f a f a a f a a a f a a a
1 16 e e e e f c e f c c f h f a a a
1 16 c f h f a f a a a f a f a a a a
1 7 a a a f h f h
1 8 c a c a c a g a
1 13 c f h f f a a a f f a a a
1 13 c f h f f a a a a f a a a
1 2 c a
1 23 e f c e f c e f c a a a c f h f a a f f a a a
1 13 a a e f c f h f h f h f h
1 22 a a a a a a a a e e e f c e f c c f h f f a
1 2 f h
1 9 b a a a a b f e e
1 22 e f c e f c c f h f a a a f a a f f a a a a
1 31 e f c e f c a a a a b b c f h f a a a f a a a f a a f a a a a
1 25 a a a a a a b b e f c a a a a a a a a a a f h f h
1 17 a a a a b a b e f c e f c e f h f
1 14 c f h f a a f a a a f a a a
1 36 a a a a b b a a a a a a a a b b a a c f h f a a a f a f a a a a f a a a
1 16 e f c b b b a e f c c f h f a a
1 19 a a a a a a a a a a a b e f c c f h f
1 10 e f c f c a a a b e
1 28 e f c a a a a a a a a a a a b e f c e f c c f h f a a a
1 16 e f c a a a a c f h f f a f a a
1 8 c a g a c a g a
1 8 c a c a g a c a
1 18 a a a a e e e f c c f h f a a a a f
1 16 a a a b e e f c a a a b b c f h
1 10 a a a b c f h f a f
1 7 a a a c f h f
1 21 b e e e e f c e f c e f c c f h f f a a a
1 8 g a g a c a c a
1 9 f c e e f c f h e
1 2 b f
1 13 a a a b e f c f h f e f h
1 11 e e e e f c b a c f h
1 15 e f c c f h f f a a a a f a a
1 20 e f c e e e f c b b a a a a c f h f a a
1 4 c a c a
1 23 e e f c b a a a b e f c b a a c f h f a a a a
1 17 a a a b a a a b b e e f c a a a e
1 9 b a a b b e e f h
1 10 c f h f a a a a f a
1 10 a a a a a a a c f h
1 13 e f c e f c c f h f a a a
1 5 f c e f c
1 14 c f h f a f a a a f a a a a
1 28 e f c a a e f c e e e e f c c f h f a f f a a f a a a a
1 4 g a g a
1 8 c a g a g a c a
1 12 c f h f a a f a f a a a
1 8 g a c a c a c a
1 27 e e f c e f c e f c b b b b c f h f a f a a a f a a a
1 8 g a c a g a g a
1 11 b a a a e f c e f c e
1 8 c a g a c a c a
1 2 e e
1 23 b b b b e f c e e f c a a a a b a a a a c f h
1 8 e f c f h f h e
1 6 c a g a g a
1 8 c a c a c a c a
1 6 g a g a g a
1 12 e f c b b a a a a c f h
1 2 e f
1 19 e e e f c c f h f a a f a a a f a a a
1 3 f f h
1 24 b b b a a a e f c f c c f h f f a a f a a f a a
1 16 a a a a a a a a a a f h f h f h
1 8 g a c a g a c a
1 23 e f c b a a a a c f h f a f a a a a f a a a a
1 5 e f h f f
1 6 g a g a c a
1 19 b b b b a a a a a a a a a a f h f f h
1 3 e f c
1 11 e e e f c e f c c f h
1 11 a a a a a a f f h f h
1 27 e f c b a a a a b e e e f c a c f h f a a f a a a a f
1 11 b b b e f c a b e e e
1 12 e f c b b b e f c c f h
1 19 b b e f c b b b a a a b e f h f h f h
1 14 a a a b e f c e e f c f c e
1 25 b a a b a a a c f h f a a a f a a a a f a f a a a
1 17 e e e e f c e f c f c c f h f a f
1 26 a a b a a a a a a a e e e f c e e f c f h f f h f h
1 8 c f h f a a a f
1 11 b b b e f c a a b f f
1 16 f c a a a e f c e f c f h e f h
1 19 b a a a a a a a a c f h f a a a f a f
1 31 e f c e f c a a a a b b a a a a a a a b b c f h f a a a a f a
1 3 c f h
1 15 e e e f c e f c f h f h f h f
1 6 c a g a c a
1 19 a a a a b b c f h f a a a f a a a f a
1 2 g a
1 15 b b b a a a a e f c c f h f a
1 22 a a a a a a a a b c f h f a a f a a a f a a
1 16 a a b a a e f c c f h f a a a a
1 6 g a c a c a
1 4 f h e e
1 17 a b b e f c e f c c f h f a a a a
1 9 e f c b b f f h e
1 4 c a g a
1 3 b f h
1 18 e f c e f c c f h f f a f a a a a f
1 13 a a a b b a a a a b b b e
1 6 a b b f h e
1 16 e f c f c e f c e f c f f h f e
1 15 e f c b a a a a b c f h f a a
1 14 e f c f c e f c e f c c f h
1 6 c a c a c a
1 8 c a c a g a g a
1 10 b a a a e e e f c b
1 6 e f c c f h
1 11 e e e f c f c e f h e
1 9 e f c e f c e f h
1 13 e e e f c e f c e f c f h
1 15 e f c e f c f c c f h f a a a
1 9 a b a a a a f c f
1 22 a a a e f c a a a b a a b b c f h f a a a f
1 21 e e e f c c f h f a a a f a f a a f a a a
1 12 f c e e e f c b f h f h
1 17 e f c c f h f f a a a a f a a a a
1 6 g a c a g a
1 9 e f c b e f c f h
1 4 f c e f
1 5 a a e f c
1 17 b a b b a a b a a a e f c f f h f
1 17 e f c f c e f c b c f h f a a a a
1 4 g a c a
1 14 a a a a b a a e e f c c f h
1 6 f c c f h f
1 1 f
1 17 e e e e f c b b b c f h f f a a a
1 13 a a a a e e f c b b f h e
1 8 e f c b a b f h
1 18 e e f c e e e f c c f h f f a f a a
1 4 f h f h
1 6 f h f f h e
1 8 g a g a c a g a
1 23 b a a a b a a a a e e e e f c e f c e f c f h
1 24 b b b b e e f c c f h f a a a a f a a f a a a f
1 13 e f c e f c b b b a f h e
1 11 a a b b b e f c e f c
1 18 e f c e f c c f h f a a a a f a a f
1 17 b b b e e e f c e f c e f c f h e
1 12 e f c b b b e f c e f c
1 9 b b b b e f h e f
1 16 b e e f c c f h f f a a a f a a
1 1 b
1 16 b b e e e f c e f c c f h f a f
1 14 c f h f f a a a a f a a a a
1 22 a a a a a a a a e e e e f c e e e f c f h f
1 6 c a c a g a
1 15 c f h f a f f a a a a f a a a
1 26 a a a a e f c e e e e f c c f h f a a a f a a a f a
1 19 e e e f c e f c e f c c f h f f a a a
1 5 e f c b f
1 26 a a a a b b a a a a a a a a c f h f a a a f a a f a
1 15 b a e f c e e e e f c c f h f
1 3 f h e
1 9 e e e f c c f h f
0 7 g a g a c a g
0 16 e e f c a a a b e e e e f c c f
0 4 b a c f
0 12 b b b a a a b b e f c c
0 7 b a a b a a c
0 9 e e e e f c f c c
0 16 e f c a a a a a b b a b e f c c
0 14 e e f c e f c b a a a a c f
0 7 a a a a b b c
0 13 e e f c b b b a a a a c f
0 11 e e e e f c b a a b c
0 9 a a a a e e f c c
0 11 e f c e e f c e f c c
0 16 a a a a a a a a b a a b b a a c
0 20 e e e e f c b a a a a b b a e e e f c c
0 20 a a a a a a b b e f c e f c b a a a a c
0 11 e e f c e f c f c c f
0 7 c a c a c a c
0 14 b b a a a a b a a a a b c f
0 15 a a a a a a b a b b e f c c f
0 6 e f c a a c
0 5 g a c a c
0 5 c a c a g
0 3 g a g
0 1 g
0 12 e f c e e f c e f c c f
0 5 g a c a g
0 14 a a a b a a a a a e e f c c
0 5 e e f c c
0 7 c a c a c a g
0 7 e f c a b b c
0 7 c a c a g a c
0 19 e f c b b a a a a b b b b a a a a c f
0 7 g a c a c a c
0 11 e e f c b a a a a b c
0 7 g a c a g a g
0 4 e f c c
0 8 b e f c e f c c
0 10 b a a a a a a a c f
0 9 a a a b a a a a c
0 7 c a g a c a c
0 12 e e f c b b b a a a a c
0 6 a a b a a c
0 7 a a b a a c f
0 1 c
0 9 f c a a a b f c c
0 8 b f c e e f c c
0 10 e e e e f c f c c f
0 8 e e e e f c c f
0 8 e e f c e f c c
0 22 b b a a a a a a a a a a a a a a b f c b c f
0 7 g a g a g a g
0 5 c a g a c
0 12 e e e f c e f c b b a c
0 12 b a a a a a a a a a c f
0 8 a a a a b b c f
0 12 e e e e f c b a a b c f
0 13 b a a a a a a a a e f c c
0 13 b b b a a a b b e f c c f
0 14 b a a a a a a a a e f c c f
0 9 b b b e e e f c c
0 11 b a a a a a a a a a c
0 11 a a b b a a a b b c f
0 3 b c f
0 15 e e f c a a a b e e e e f c c
0 21 a a a b a a a b a a a b a a a a e f c c f
0 10 e f c e e e e f c c
0 13 e f c e f c e f c e f c c
0 10 b b b e e e f c c f
0 7 c a g a g a c
0 8 a a a a a b c f
0 9 e e f c e f c c f
0 11 e f c e f c a a a a c
0 10 a a b b a a a b b c
0 17 a a a a a a a a b a a b b a a c f
0 9 a a a b e f c c f
0 9 b a a a a a a a c
0 13 e f c a a b b b f c f c c
0 14 b a a a a a a a a a a a c f
0 11 e f c a a a b b b c f
0 7 c a g a g a g
0 3 c a g
0 7 a a a a a b c
0 11 e f c e e e e f c c f
0 8 e e f c a a b c
0 7 g a g a c a c
0 17 e f c a a a a a b b a b e f c c f
0 15 a a a a a a a b a a a a a b c
0 7 g a c a c a g
0 3 c a c
0 20 a a a b a a a b a a a b a a a a e f c c
0 6 b e f c c f
0 15 b a a a a a a e e e e f c b c
0 13 e e f c e f c b a a a a c
0 9 b b b b b a a c f
0 8 b a a b a a c f
0 6 b a a a c f
0 12 e f c e f c e e f c c f
0 9 e e f c a a b c f
0 7 e f c a a c f
0 16 e f c e f c b a a a b b a a c f
0 9 e f c e f c b b c
0 10 b a a b a a a b c f
0 10 e e e f c e f c c f
0 15 b b a a a b a a a b e f c c f
0 14 e f c a a b b b f c f c c f
0 10 b f c e e e f c c f
0 14 e f c e f c e f c e f c c f
0 21 b b a a a a a a a a a a a a a a b f c b c
0 6 f c f c c f
0 7 g a c a g a c
0 21 e e e e f c b a a a a b b a e e e f c c f
0 9 a a b b a a a c f
0 2 b c
0 10 e f c a a a b b b c
0 14 a a a a a a b a b b e f c c
0 6 e e f c c f
0 14 b b a b e f c e e e f c c f
0 7 c a g a c a g
0 13 b b a b e f c e e e f c c
0 2 c f
0 10 e f c e f c b b c f
0 9 b f c e e f c c f
0 18 e f c b b a a a a b b b b a a a a c
0 8 a a b b a a a c
0 23 e e e e f c b b a a a a a a e e e f c e f c c
0 24 e e e e f c b b a a a a a a e e e f c e f c c f
0 12 e e f c b a a a a b c f
0 10 e e f c e f c f c c
0 5 e f c c f
0 14 b b a a a b a a a b e f c c
0 6 a a a a c f
0 11 e f c e f c e f c c f
0 13 b b a a a a b a a a a b c
0 10 e f c e f c e f c c
0 15 a a a a b b e f c a a a a c f
0 7 g a g a g a c
0 8 e f c a b b c f
0 10 a a a a e e f c c f
0 8 b b b b b a a c
0 11 f c a a a a a e f c c
0 10 a a a b a a a a c f
0 15 e f c e f c b a a a b b a a c
0 4 a a c f
0 9 e e e f c e f c c
0 3 a a c
0 10 f c a a a b f c c f
0 21 a a a a a a b b e f c e f c b a a a a c f
0 16 a a a a a a a b a a a a a b c f
0 5 a a a a c
0 5 b a a a c
0 5 c a g a g
0 8 a a a b e f c c
0 12 f c a a a a a e f c c f
0 15 a a a b a a a a a e e f c c f
0 16 b a a a a a a e e e e f c b c f
0 11 e f c e f c e e f c c
0 3 b a c
0 14 e f c a a a b a a a b b c f
0 13 b a a a a a a a a a a a c
0 5 g a g a c
0 12 e f c e f c a a a a c f
0 5 g a g a g
0 13 e e e f c e f c b b a c f
0 5 b e f c c
0 5 c a c a c
0 5 f c f c c
0 14 a a a a b b e f c a a a a c
0 13 e f c a a a b a a a b b c
0 3 g a c
0 7 e e e e f c c
0 9 b a a b a a a b c
0 9 b e f c e f c c f
0 9 b f c e e e f c c
